﻿<?xml version="1.0" encoding="utf-8"?>
<?xml-stylesheet type="text/xsl" href="ActivityLog.xsl"?>
<BuildInformation>
  <BuildInformationNode Id="71e66287-0bcb-4690-86ff-5bda46d6cce7" Type="ActivityTracking">
  <Fields>
    <InformationField Name="ActivityInstanceId" Value="1" />
    <InformationField Name="ActivityType" Value="DynamicActivity" />
    <InformationField Name="DisplayName" Value="Overall Build Process" />
    <InformationField Name="Duration" Value="00:01:33" />
    <InformationField Name="State" Value="Canceled" />
    <InformationField Name="StartTime" Value="2013-02-22T07:00:12.3053818Z" />
    <InformationField Name="FinishTime" Value="2013-02-22T07:01:45.4227078Z" />
  </Fields>
<Children><BuildInformationNode Id="c2efb80b-d15c-451e-9b7e-167d258aaf3e" ParentId="71e66287-0bcb-4690-86ff-5bda46d6cce7" Type="ActivityInput">
  <Fields>
    <InformationField Name="MSBuildMultiProc" Value="True" />
    <InformationField Name="Verbosity" Value="Normal" />
    <InformationField Name="CreateWorkItem" Value="True" />
    <InformationField Name="SourceAndSymbolServerSettings" Value="Index Sources" />
    <InformationField Name="RunCodeAnalysis" Value="AsConfigured" />
    <InformationField Name="SolutionSpecificBuildOutputs" Value="False" />
    <InformationField Name="TestSpecs" Value="Standard tests - Run tests from $/Titanium Goat/TitaniumGoat/TitaniumGoat.vsmdi (test lists: Remote UT), Fails build" />
    <InformationField Name="AgentSettings" Value="Use agent where Name=* and Tags is empty; Max Wait Time: 04:00:00" />
    <InformationField Name="MSBuildPlatform" Value="X86" />
    <InformationField Name="PrivateDropLocation" />
    <InformationField Name="MSBuildArguments" />
    <InformationField Name="CreateLabel" Value="True" />
    <InformationField Name="AssociateChangesetsAndWorkItems" Value="True" />
    <InformationField Name="GetVersion" />
    <InformationField Name="CleanWorkspace" Value="All" />
    <InformationField Name="PerformTestImpactAnalysis" Value="True" />
    <InformationField Name="BuildSettings" Value="Build 1 project(s) for 1 platform(s) and configuration(s)" />
    <InformationField Name="BuildNumberFormat" Value="$(BuildDefinitionName)_$(Date:yyyyMMdd)$(Rev:.r)" />
    <InformationField Name="DisableTests" Value="False" />
  </Fields>
<Children /></BuildInformationNode><BuildInformationNode Id="ac8be6e1-5d64-4d08-8d2d-3aeea60a799b" ParentId="71e66287-0bcb-4690-86ff-5bda46d6cce7" Type="ActivityTracking">
  <Fields>
    <InformationField Name="ActivityInstanceId" Value="2" />
    <InformationField Name="ActivityType" Value="Sequence" />
    <InformationField Name="DisplayName" Value="Sequence" />
    <InformationField Name="Duration" Value="00:01:33" />
    <InformationField Name="State" Value="Canceled" />
    <InformationField Name="StartTime" Value="2013-02-22T07:00:12.3073819Z" />
    <InformationField Name="FinishTime" Value="2013-02-22T07:01:45.4227078Z" />
  </Fields>
<Children><BuildInformationNode Id="cc6ce912-1532-4d6b-8cd8-183211f2ed97" ParentId="ac8be6e1-5d64-4d08-8d2d-3aeea60a799b" Type="ActivityTracking">
  <Fields>
    <InformationField Name="ActivityInstanceId" Value="3" />
    <InformationField Name="ActivityType" Value="GetBuildDetail" />
    <InformationField Name="DisplayName" Value="Get the Build" />
    <InformationField Name="Duration" Value="00:00:00" />
    <InformationField Name="State" Value="Closed" />
    <InformationField Name="StartTime" Value="2013-02-22T07:00:12.3073819Z" />
    <InformationField Name="FinishTime" Value="2013-02-22T07:00:12.3073819Z" />
  </Fields>
<Children /></BuildInformationNode><BuildInformationNode Id="6fe9526e-0f7f-4d90-9b27-c058a64ed63c" ParentId="ac8be6e1-5d64-4d08-8d2d-3aeea60a799b" Type="ActivityTracking">
  <Fields>
    <InformationField Name="ActivityInstanceId" Value="4" />
    <InformationField Name="ActivityType" Value="Sequence" />
    <InformationField Name="DisplayName" Value="Update Drop Location" />
    <InformationField Name="Duration" Value="00:00:00" />
    <InformationField Name="State" Value="Closed" />
    <InformationField Name="StartTime" Value="2013-02-22T07:00:12.3073819Z" />
    <InformationField Name="FinishTime" Value="2013-02-22T07:00:13.2894381Z" />
  </Fields>
<Children><BuildInformationNode Id="2fe7315a-48f5-4d0b-a8d2-3f677b91b7ef" ParentId="6fe9526e-0f7f-4d90-9b27-c058a64ed63c" Type="ActivityTracking">
  <Fields>
    <InformationField Name="ActivityInstanceId" Value="11" />
    <InformationField Name="ActivityType" Value="UpdateBuildNumber" />
    <InformationField Name="DisplayName" Value="Update Build Number" />
    <InformationField Name="Duration" Value="00:00:00" />
    <InformationField Name="State" Value="Closed" />
    <InformationField Name="StartTime" Value="2013-02-22T07:00:12.3083820Z" />
    <InformationField Name="FinishTime" Value="2013-02-22T07:00:13.1354293Z" />
  </Fields>
<Children><BuildInformationNode Id="49746c54-9b1a-4638-9557-0491990293fc" ParentId="2fe7315a-48f5-4d0b-a8d2-3f677b91b7ef" Type="ActivityInput">
  <Fields>
    <InformationField Name="BuildNumberFormat" Value="$(BuildDefinitionName)_$(Date:yyyyMMdd)$(Rev:.r)" />
  </Fields>
<Children /></BuildInformationNode><BuildInformationNode Id="1968e618-b210-47d7-a8f6-7eb86130a046" ParentId="2fe7315a-48f5-4d0b-a8d2-3f677b91b7ef" Type="ActivityOutput">
  <Fields>
    <InformationField Name="Result" Value="Nightly_20130222.1" />
  </Fields>
<Children /></BuildInformationNode></Children></BuildInformationNode><BuildInformationNode Id="ba4b446f-954f-433e-b6a1-0c791f878233" ParentId="6fe9526e-0f7f-4d90-9b27-c058a64ed63c" Type="ActivityTracking">
  <Fields>
    <InformationField Name="ActivityInstanceId" Value="12" />
    <InformationField Name="ActivityType" Value="If" />
    <InformationField Name="DisplayName" Value="If Build Reason is Triggered" />
    <InformationField Name="Duration" Value="00:00:00" />
    <InformationField Name="State" Value="Closed" />
    <InformationField Name="StartTime" Value="2013-02-22T07:00:13.1364293Z" />
    <InformationField Name="FinishTime" Value="2013-02-22T07:00:13.2894381Z" />
  </Fields>
<Children><BuildInformationNode Id="68fe56cf-4c78-4177-a316-0319c28b0e36" ParentId="ba4b446f-954f-433e-b6a1-0c791f878233" Type="ActivityTracking">
  <Fields>
    <InformationField Name="ActivityInstanceId" Value="13" />
    <InformationField Name="ActivityType" Value="Sequence" />
    <InformationField Name="DisplayName" Value="Sequence" />
    <InformationField Name="Duration" Value="00:00:00" />
    <InformationField Name="State" Value="Closed" />
    <InformationField Name="StartTime" Value="2013-02-22T07:00:13.1364293Z" />
    <InformationField Name="FinishTime" Value="2013-02-22T07:00:13.2894381Z" />
  </Fields>
<Children><BuildInformationNode Id="4dd43bee-167b-447a-b3f2-6357858be664" ParentId="68fe56cf-4c78-4177-a316-0319c28b0e36" Type="ActivityTracking">
  <Fields>
    <InformationField Name="ActivityInstanceId" Value="14" />
    <InformationField Name="ActivityType" Value="Assign&lt;String&gt;" />
    <InformationField Name="DisplayName" Value="Assign&lt;String&gt;" />
    <InformationField Name="Duration" Value="00:00:00" />
    <InformationField Name="State" Value="Closed" />
    <InformationField Name="StartTime" Value="2013-02-22T07:00:13.1364293Z" />
    <InformationField Name="FinishTime" Value="2013-02-22T07:00:13.1364293Z" />
  </Fields>
<Children><BuildInformationNode Id="fc7c8abb-5f5b-4a19-9c32-4ccddc55fba9" ParentId="4dd43bee-167b-447a-b3f2-6357858be664" Type="ActivityInput">
  <Fields>
    <InformationField Name="Value" Value="$/Titanium Goat/Drops/Nightly/Nightly_20130222.1" />
  </Fields>
<Children /></BuildInformationNode><BuildInformationNode Id="64018632-007e-471a-abc1-24c143d81728" ParentId="4dd43bee-167b-447a-b3f2-6357858be664" Type="ActivityOutput">
  <Fields>
    <InformationField Name="To" Value="$/Titanium Goat/Drops/Nightly/Nightly_20130222.1" />
  </Fields>
<Children /></BuildInformationNode></Children></BuildInformationNode><BuildInformationNode Id="f22b4f02-7749-4d39-83c4-2960709a04ac" ParentId="68fe56cf-4c78-4177-a316-0319c28b0e36" Type="ActivityTracking">
  <Fields>
    <InformationField Name="ActivityInstanceId" Value="15" />
    <InformationField Name="ActivityType" Value="SetBuildProperties" />
    <InformationField Name="DisplayName" Value="Set Drop Location" />
    <InformationField Name="Duration" Value="00:00:00" />
    <InformationField Name="State" Value="Closed" />
    <InformationField Name="StartTime" Value="2013-02-22T07:00:13.1374294Z" />
    <InformationField Name="FinishTime" Value="2013-02-22T07:00:13.2894381Z" />
  </Fields>
<Children><BuildInformationNode Id="75305eed-5a15-4cd2-b7d3-2e00fc40ec01" ParentId="f22b4f02-7749-4d39-83c4-2960709a04ac" Type="ActivityInput">
  <Fields>
    <InformationField Name="LabelName" />
    <InformationField Name="SourceGetVersion" />
    <InformationField Name="KeepForever" Value="False" />
    <InformationField Name="DropLocation" Value="$/Titanium Goat/Drops/Nightly/Nightly_20130222.1" />
    <InformationField Name="Status" Value="None" />
    <InformationField Name="LogLocation" />
    <InformationField Name="BuildNumber" />
    <InformationField Name="Quality" />
    <InformationField Name="TestStatus" Value="Unknown" />
    <InformationField Name="CompilationStatus" Value="Unknown" />
  </Fields>
<Children /></BuildInformationNode></Children></BuildInformationNode></Children></BuildInformationNode><BuildInformationNode Id="92f7ab00-c101-4dd5-a05c-de9705c36d93" ParentId="ba4b446f-954f-433e-b6a1-0c791f878233" Type="ActivityInput">
  <Fields>
    <InformationField Name="Condition" Value="True" />
  </Fields>
<Children /></BuildInformationNode></Children></BuildInformationNode><BuildInformationNode Id="658d445b-8c9d-48dc-b3b5-60ebf2716da9" ParentId="6fe9526e-0f7f-4d90-9b27-c058a64ed63c" Type="ActivityTracking">
  <Fields>
    <InformationField Name="ActivityInstanceId" Value="16" />
    <InformationField Name="ActivityType" Value="If" />
    <InformationField Name="DisplayName" Value="If Build Reason is ValidateShelveset" />
    <InformationField Name="Duration" Value="00:00:00" />
    <InformationField Name="State" Value="Closed" />
    <InformationField Name="StartTime" Value="2013-02-22T07:00:13.2894381Z" />
    <InformationField Name="FinishTime" Value="2013-02-22T07:00:13.2894381Z" />
  </Fields>
<Children><BuildInformationNode Id="2246b4b2-1e69-4c91-b8c4-8344fd0a945a" ParentId="658d445b-8c9d-48dc-b3b5-60ebf2716da9" Type="ActivityInput">
  <Fields>
    <InformationField Name="Condition" Value="False" />
  </Fields>
<Children /></BuildInformationNode></Children></BuildInformationNode></Children></BuildInformationNode><BuildInformationNode Id="16423dc3-9a93-4ebc-8e67-51302e11b687" ParentId="ac8be6e1-5d64-4d08-8d2d-3aeea60a799b" Type="AgentScopeActivityTracking">
  <Fields>
    <InformationField Name="ReservationStatus" Value="AgentReleased" />
    <InformationField Name="ReservedAgentUri" Value="vstfs:///Build/Agent/20" />
    <InformationField Name="ReservedAgentName" Value="BOBTHEBUILDER - Agent1" />
    <InformationField Name="ActivityInstanceId" Value="17" />
    <InformationField Name="ActivityType" Value="AgentScope" />
    <InformationField Name="DisplayName" Value="Run On Agent" />
    <InformationField Name="Duration" Value="00:01:32" />
    <InformationField Name="State" Value="Canceled" />
    <InformationField Name="StartTime" Value="2013-02-22T07:00:13.2904381Z" />
    <InformationField Name="FinishTime" Value="2013-02-22T07:01:45.4227078Z" />
    <InformationField Name="PossibleAgents" Value="vstfs:///Build/Agent/20=BOBTHEBUILDER - Agent1" />
  </Fields>
<Children><BuildInformationNode Id="22d10ebe-a5ab-4003-8c52-bd5644916cd7" ParentId="16423dc3-9a93-4ebc-8e67-51302e11b687" Type="ActivityInput">
  <Fields>
    <InformationField Name="MaxWaitTime" Value="04:00:00" />
    <InformationField Name="MaxExecutionTime" Value="00:00:00" />
    <InformationField Name="ReservationSpec" Value="Name=*, Tags=" />
  </Fields>
<Children /></BuildInformationNode><BuildInformationNode Id="a7fa4c43-41cf-4e52-b8b5-b39c740fd8ce" ParentId="16423dc3-9a93-4ebc-8e67-51302e11b687" Type="ActivityOutput">
  <Fields>
    <InformationField Name="Result" Value="BOBTHEBUILDER - Agent1 (vstfs:///Build/Agent/20)" />
  </Fields>
<Children /></BuildInformationNode></Children></BuildInformationNode></Children></BuildInformationNode></Children></BuildInformationNode>
</BuildInformation>