﻿<?xml version="1.0" encoding="utf-8"?>
<?xml-stylesheet type="text/xsl" href="ActivityLog.xsl"?>
<BuildInformation>
  <BuildInformationNode Id="8e29431b-2478-4f15-a610-c18b958f1887" Type="ActivityTracking">
  <Fields>
    <InformationField Name="ActivityInstanceId" Value="1" />
    <InformationField Name="ActivityType" Value="DynamicActivity" />
    <InformationField Name="DisplayName" Value="Overall Build Process" />
    <InformationField Name="Duration" Value="00:03:23" />
    <InformationField Name="State" Value="Closed" />
    <InformationField Name="StartTime" Value="2013-04-25T07:00:05.6661465Z" />
    <InformationField Name="FinishTime" Value="2013-04-25T07:03:28.7473032Z" />
  </Fields>
<Children><BuildInformationNode Id="b010443d-095c-42bf-979e-1deec3bc74cb" ParentId="8e29431b-2478-4f15-a610-c18b958f1887" Type="ActivityTracking">
  <Fields>
    <InformationField Name="ActivityInstanceId" Value="2" />
    <InformationField Name="ActivityType" Value="Sequence" />
    <InformationField Name="DisplayName" Value="Sequence" />
    <InformationField Name="Duration" Value="00:03:23" />
    <InformationField Name="State" Value="Closed" />
    <InformationField Name="StartTime" Value="2013-04-25T07:00:05.6661465Z" />
    <InformationField Name="FinishTime" Value="2013-04-25T07:03:28.7473032Z" />
  </Fields>
<Children><BuildInformationNode Id="b0eb0b31-835a-4b03-bdbc-843e4dd45649" ParentId="b010443d-095c-42bf-979e-1deec3bc74cb" Type="ActivityTracking">
  <Fields>
    <InformationField Name="ActivityInstanceId" Value="3" />
    <InformationField Name="ActivityType" Value="GetBuildDetail" />
    <InformationField Name="DisplayName" Value="Get the Build" />
    <InformationField Name="Duration" Value="00:00:00" />
    <InformationField Name="State" Value="Closed" />
    <InformationField Name="StartTime" Value="2013-04-25T07:00:05.6661465Z" />
    <InformationField Name="FinishTime" Value="2013-04-25T07:00:05.6661465Z" />
  </Fields>
<Children /></BuildInformationNode><BuildInformationNode Id="e2e656fa-d8ac-4250-9e25-a3c0bda301ac" ParentId="b010443d-095c-42bf-979e-1deec3bc74cb" Type="ActivityTracking">
  <Fields>
    <InformationField Name="ActivityInstanceId" Value="4" />
    <InformationField Name="ActivityType" Value="Sequence" />
    <InformationField Name="DisplayName" Value="Update Drop Location" />
    <InformationField Name="Duration" Value="00:00:00" />
    <InformationField Name="State" Value="Closed" />
    <InformationField Name="StartTime" Value="2013-04-25T07:00:05.6661465Z" />
    <InformationField Name="FinishTime" Value="2013-04-25T07:00:06.1497474Z" />
  </Fields>
<Children><BuildInformationNode Id="71762a73-1a8c-4d54-afc3-c631c6155ca4" ParentId="e2e656fa-d8ac-4250-9e25-a3c0bda301ac" Type="ActivityTracking">
  <Fields>
    <InformationField Name="ActivityInstanceId" Value="11" />
    <InformationField Name="ActivityType" Value="UpdateBuildNumber" />
    <InformationField Name="DisplayName" Value="Update Build Number" />
    <InformationField Name="Duration" Value="00:00:00" />
    <InformationField Name="State" Value="Closed" />
    <InformationField Name="StartTime" Value="2013-04-25T07:00:05.6661465Z" />
    <InformationField Name="FinishTime" Value="2013-04-25T07:00:05.9781471Z" />
  </Fields>
<Children><BuildInformationNode Id="60bebdc6-354b-40e9-8cd0-dc5234e6f659" ParentId="71762a73-1a8c-4d54-afc3-c631c6155ca4" Type="ActivityInput">
  <Fields>
    <InformationField Name="BuildNumberFormat" Value="$(BuildDefinitionName)_$(Date:yyyyMMdd)$(Rev:.r)" />
  </Fields>
<Children /></BuildInformationNode><BuildInformationNode Id="2c335e75-c2b8-4a02-a459-baa116a2419b" ParentId="71762a73-1a8c-4d54-afc3-c631c6155ca4" Type="ActivityOutput">
  <Fields>
    <InformationField Name="Result" Value="Nightly_20130425.1" />
  </Fields>
<Children /></BuildInformationNode></Children></BuildInformationNode><BuildInformationNode Id="729cddb3-7c81-434c-84ab-ba0a9985094e" ParentId="e2e656fa-d8ac-4250-9e25-a3c0bda301ac" Type="ActivityTracking">
  <Fields>
    <InformationField Name="ActivityInstanceId" Value="12" />
    <InformationField Name="ActivityType" Value="If" />
    <InformationField Name="DisplayName" Value="If Build Reason is Triggered" />
    <InformationField Name="Duration" Value="00:00:00" />
    <InformationField Name="State" Value="Closed" />
    <InformationField Name="StartTime" Value="2013-04-25T07:00:05.9781471Z" />
    <InformationField Name="FinishTime" Value="2013-04-25T07:00:06.1497474Z" />
  </Fields>
<Children><BuildInformationNode Id="8172d788-d0f6-4d0c-b4dc-33ec159ca9b4" ParentId="729cddb3-7c81-434c-84ab-ba0a9985094e" Type="ActivityTracking">
  <Fields>
    <InformationField Name="ActivityInstanceId" Value="13" />
    <InformationField Name="ActivityType" Value="Sequence" />
    <InformationField Name="DisplayName" Value="Sequence" />
    <InformationField Name="Duration" Value="00:00:00" />
    <InformationField Name="State" Value="Closed" />
    <InformationField Name="StartTime" Value="2013-04-25T07:00:05.9781471Z" />
    <InformationField Name="FinishTime" Value="2013-04-25T07:00:06.1497474Z" />
  </Fields>
<Children><BuildInformationNode Id="be6c27e9-3b47-424e-a7f9-915c564d3f6b" ParentId="8172d788-d0f6-4d0c-b4dc-33ec159ca9b4" Type="ActivityTracking">
  <Fields>
    <InformationField Name="ActivityInstanceId" Value="14" />
    <InformationField Name="ActivityType" Value="Assign&lt;String&gt;" />
    <InformationField Name="DisplayName" Value="Assign&lt;String&gt;" />
    <InformationField Name="Duration" Value="00:00:00" />
    <InformationField Name="State" Value="Closed" />
    <InformationField Name="StartTime" Value="2013-04-25T07:00:05.9781471Z" />
    <InformationField Name="FinishTime" Value="2013-04-25T07:00:05.9781471Z" />
  </Fields>
<Children><BuildInformationNode Id="7cd80507-36c6-4c0a-b20f-930c0d37191e" ParentId="be6c27e9-3b47-424e-a7f9-915c564d3f6b" Type="ActivityInput">
  <Fields>
    <InformationField Name="Value" Value="$/Titanium Goat/Drops/Nightly/Nightly_20130425.1" />
  </Fields>
<Children /></BuildInformationNode><BuildInformationNode Id="1ffc311f-b800-4d55-b4a8-e30394b32d90" ParentId="be6c27e9-3b47-424e-a7f9-915c564d3f6b" Type="ActivityOutput">
  <Fields>
    <InformationField Name="To" Value="$/Titanium Goat/Drops/Nightly/Nightly_20130425.1" />
  </Fields>
<Children /></BuildInformationNode></Children></BuildInformationNode><BuildInformationNode Id="ce3d47d6-f8de-4fcb-8277-725a3a2ab154" ParentId="8172d788-d0f6-4d0c-b4dc-33ec159ca9b4" Type="ActivityTracking">
  <Fields>
    <InformationField Name="ActivityInstanceId" Value="15" />
    <InformationField Name="ActivityType" Value="SetBuildProperties" />
    <InformationField Name="DisplayName" Value="Set Drop Location" />
    <InformationField Name="Duration" Value="00:00:00" />
    <InformationField Name="State" Value="Closed" />
    <InformationField Name="StartTime" Value="2013-04-25T07:00:05.9781471Z" />
    <InformationField Name="FinishTime" Value="2013-04-25T07:00:06.1497474Z" />
  </Fields>
<Children><BuildInformationNode Id="0cc7fa34-5662-4928-8ac6-fd2b671ae209" ParentId="ce3d47d6-f8de-4fcb-8277-725a3a2ab154" Type="ActivityInput">
  <Fields>
    <InformationField Name="LabelName" />
    <InformationField Name="SourceGetVersion" />
    <InformationField Name="KeepForever" Value="False" />
    <InformationField Name="DropLocation" Value="$/Titanium Goat/Drops/Nightly/Nightly_20130425.1" />
    <InformationField Name="Status" Value="None" />
    <InformationField Name="LogLocation" />
    <InformationField Name="BuildNumber" />
    <InformationField Name="Quality" />
    <InformationField Name="TestStatus" Value="Unknown" />
    <InformationField Name="CompilationStatus" Value="Unknown" />
  </Fields>
<Children /></BuildInformationNode></Children></BuildInformationNode></Children></BuildInformationNode><BuildInformationNode Id="1cfdf275-5774-41eb-8c76-20c36bf94826" ParentId="729cddb3-7c81-434c-84ab-ba0a9985094e" Type="ActivityInput">
  <Fields>
    <InformationField Name="Condition" Value="True" />
  </Fields>
<Children /></BuildInformationNode></Children></BuildInformationNode><BuildInformationNode Id="7a899a51-96fc-4144-891d-d23090da92c6" ParentId="e2e656fa-d8ac-4250-9e25-a3c0bda301ac" Type="ActivityTracking">
  <Fields>
    <InformationField Name="ActivityInstanceId" Value="16" />
    <InformationField Name="ActivityType" Value="If" />
    <InformationField Name="DisplayName" Value="If Build Reason is ValidateShelveset" />
    <InformationField Name="Duration" Value="00:00:00" />
    <InformationField Name="State" Value="Closed" />
    <InformationField Name="StartTime" Value="2013-04-25T07:00:06.1497474Z" />
    <InformationField Name="FinishTime" Value="2013-04-25T07:00:06.1497474Z" />
  </Fields>
<Children><BuildInformationNode Id="bc69eeb2-f4c9-47c4-a8e2-1e0c5bbe9fec" ParentId="7a899a51-96fc-4144-891d-d23090da92c6" Type="ActivityInput">
  <Fields>
    <InformationField Name="Condition" Value="False" />
  </Fields>
<Children /></BuildInformationNode></Children></BuildInformationNode></Children></BuildInformationNode><BuildInformationNode Id="93cc3d8a-b097-473e-8d94-b719d5f28d11" ParentId="b010443d-095c-42bf-979e-1deec3bc74cb" Type="AgentScopeActivityTracking">
  <Fields>
    <InformationField Name="ReservationStatus" Value="AgentReleased" />
    <InformationField Name="ReservedAgentUri" Value="vstfs:///Build/Agent/20" />
    <InformationField Name="ReservedAgentName" Value="BOBTHEBUILDER - Agent1" />
    <InformationField Name="ActivityInstanceId" Value="17" />
    <InformationField Name="ActivityType" Value="AgentScope" />
    <InformationField Name="DisplayName" Value="Run On Agent" />
    <InformationField Name="Duration" Value="00:03:22" />
    <InformationField Name="State" Value="Closed" />
    <InformationField Name="StartTime" Value="2013-04-25T07:00:06.1497474Z" />
    <InformationField Name="FinishTime" Value="2013-04-25T07:03:28.7473032Z" />
    <InformationField Name="PossibleAgents" Value="vstfs:///Build/Agent/20=BOBTHEBUILDER - Agent1" />
  </Fields>
<Children><BuildInformationNode Id="63330d1e-0061-43c6-8fca-c0b909456480" ParentId="93cc3d8a-b097-473e-8d94-b719d5f28d11" Type="ActivityInput">
  <Fields>
    <InformationField Name="MaxWaitTime" Value="04:00:00" />
    <InformationField Name="MaxExecutionTime" Value="00:00:00" />
    <InformationField Name="ReservationSpec" Value="Name=BOBTHEBUILDER - Agent1, Tags=" />
  </Fields>
<Children /></BuildInformationNode><BuildInformationNode Id="7e85e94b-155d-4cff-b26c-81350ddde73c" ParentId="93cc3d8a-b097-473e-8d94-b719d5f28d11" Type="ActivityOutput">
  <Fields>
    <InformationField Name="Result" Value="BOBTHEBUILDER - Agent1 (vstfs:///Build/Agent/20)" />
  </Fields>
<Children /></BuildInformationNode></Children></BuildInformationNode><BuildInformationNode Id="386ae644-b2a4-4dc4-9368-306c9692e5d4" ParentId="b010443d-095c-42bf-979e-1deec3bc74cb" Type="BuildMessage">
  <Fields>
    <InformationField Name="Importance" Value="Normal" />
    <InformationField Name="Message" Value="Skipped execution of Check In Gated Changes because of BuildReason ScheduleForced" />
    <InformationField Name="Timestamp" Value="2013-04-25T07:03:28.7473032Z" />
  </Fields>
<Children /></BuildInformationNode></Children></BuildInformationNode><BuildInformationNode Id="2b1d7b66-16cd-490f-b6d4-47acb29d41eb" ParentId="8e29431b-2478-4f15-a610-c18b958f1887" Type="ActivityInput">
  <Fields>
    <InformationField Name="MSBuildMultiProc" Value="True" />
    <InformationField Name="Verbosity" Value="Normal" />
    <InformationField Name="CreateWorkItem" Value="True" />
    <InformationField Name="SourceAndSymbolServerSettings" Value="Index Sources" />
    <InformationField Name="RunCodeAnalysis" Value="AsConfigured" />
    <InformationField Name="SolutionSpecificBuildOutputs" Value="False" />
    <InformationField Name="TestSpecs" Value="Standard tests - Run tests from $/Titanium Goat/TitaniumGoat/TitaniumGoat.vsmdi (test lists: Remote UT), Fails build" />
    <InformationField Name="AgentSettings" Value="Use agent where Name=BOBTHEBUILDER - Agent1 and Tags is empty; Max Wait Time: 04:00:00" />
    <InformationField Name="MSBuildPlatform" Value="X86" />
    <InformationField Name="PrivateDropLocation" />
    <InformationField Name="MSBuildArguments" />
    <InformationField Name="CreateLabel" Value="True" />
    <InformationField Name="AssociateChangesetsAndWorkItems" Value="True" />
    <InformationField Name="GetVersion" />
    <InformationField Name="CleanWorkspace" Value="All" />
    <InformationField Name="PerformTestImpactAnalysis" Value="True" />
    <InformationField Name="BuildSettings" Value="Build 1 project(s) for 1 platform(s) and configuration(s)" />
    <InformationField Name="BuildNumberFormat" Value="$(BuildDefinitionName)_$(Date:yyyyMMdd)$(Rev:.r)" />
    <InformationField Name="DisableTests" Value="False" />
  </Fields>
<Children /></BuildInformationNode></Children></BuildInformationNode>
</BuildInformation>