﻿<?xml version="1.0" encoding="utf-8"?>
<?xml-stylesheet type="text/xsl" href="ActivityLog.xsl"?>
<BuildInformation>
  <BuildInformationNode Id="02e8e5d9-b6f7-47b9-8556-2fec8c1084e4" Type="ActivityTracking">
  <Fields>
    <InformationField Name="ActivityInstanceId" Value="1" />
    <InformationField Name="ActivityType" Value="DynamicActivity" />
    <InformationField Name="DisplayName" Value="Overall Build Process" />
    <InformationField Name="Duration" Value="00:03:05" />
    <InformationField Name="State" Value="Closed" />
    <InformationField Name="StartTime" Value="2013-04-05T06:59:59.3970360Z" />
    <InformationField Name="FinishTime" Value="2013-04-05T07:03:04.4326194Z" />
  </Fields>
<Children><BuildInformationNode Id="b253f744-f156-419e-95a2-5d0a35b4b976" ParentId="02e8e5d9-b6f7-47b9-8556-2fec8c1084e4" Type="ActivityTracking">
  <Fields>
    <InformationField Name="ActivityInstanceId" Value="2" />
    <InformationField Name="ActivityType" Value="Sequence" />
    <InformationField Name="DisplayName" Value="Sequence" />
    <InformationField Name="Duration" Value="00:03:05" />
    <InformationField Name="State" Value="Closed" />
    <InformationField Name="StartTime" Value="2013-04-05T06:59:59.3980360Z" />
    <InformationField Name="FinishTime" Value="2013-04-05T07:03:04.4326194Z" />
  </Fields>
<Children><BuildInformationNode Id="1496790a-12fe-43f4-9228-f8adf1cc0808" ParentId="b253f744-f156-419e-95a2-5d0a35b4b976" Type="ActivityTracking">
  <Fields>
    <InformationField Name="ActivityInstanceId" Value="3" />
    <InformationField Name="ActivityType" Value="GetBuildDetail" />
    <InformationField Name="DisplayName" Value="Get the Build" />
    <InformationField Name="Duration" Value="00:00:00" />
    <InformationField Name="State" Value="Closed" />
    <InformationField Name="StartTime" Value="2013-04-05T06:59:59.3980360Z" />
    <InformationField Name="FinishTime" Value="2013-04-05T06:59:59.3980360Z" />
  </Fields>
<Children /></BuildInformationNode><BuildInformationNode Id="e088ba15-2d4c-43c1-b03d-3f69540d638d" ParentId="b253f744-f156-419e-95a2-5d0a35b4b976" Type="ActivityTracking">
  <Fields>
    <InformationField Name="ActivityInstanceId" Value="4" />
    <InformationField Name="ActivityType" Value="Sequence" />
    <InformationField Name="DisplayName" Value="Update Drop Location" />
    <InformationField Name="Duration" Value="00:00:00" />
    <InformationField Name="State" Value="Closed" />
    <InformationField Name="StartTime" Value="2013-04-05T06:59:59.3990361Z" />
    <InformationField Name="FinishTime" Value="2013-04-05T06:59:59.7990590Z" />
  </Fields>
<Children><BuildInformationNode Id="445c8ffc-1149-4bcb-9606-1614bf0c8fb1" ParentId="e088ba15-2d4c-43c1-b03d-3f69540d638d" Type="ActivityTracking">
  <Fields>
    <InformationField Name="ActivityInstanceId" Value="11" />
    <InformationField Name="ActivityType" Value="UpdateBuildNumber" />
    <InformationField Name="DisplayName" Value="Update Build Number" />
    <InformationField Name="Duration" Value="00:00:00" />
    <InformationField Name="State" Value="Closed" />
    <InformationField Name="StartTime" Value="2013-04-05T06:59:59.3990361Z" />
    <InformationField Name="FinishTime" Value="2013-04-05T06:59:59.6510505Z" />
  </Fields>
<Children><BuildInformationNode Id="5f6cde0f-8aab-46e2-9ad1-a933173158f1" ParentId="445c8ffc-1149-4bcb-9606-1614bf0c8fb1" Type="ActivityInput">
  <Fields>
    <InformationField Name="BuildNumberFormat" Value="$(BuildDefinitionName)_$(Date:yyyyMMdd)$(Rev:.r)" />
  </Fields>
<Children /></BuildInformationNode><BuildInformationNode Id="19a8dafb-4e09-4786-bb73-40256ee602a6" ParentId="445c8ffc-1149-4bcb-9606-1614bf0c8fb1" Type="ActivityOutput">
  <Fields>
    <InformationField Name="Result" Value="Nightly_20130404.2" />
  </Fields>
<Children /></BuildInformationNode></Children></BuildInformationNode><BuildInformationNode Id="02ae1e9c-d183-4346-9d2b-d696246858ee" ParentId="e088ba15-2d4c-43c1-b03d-3f69540d638d" Type="ActivityTracking">
  <Fields>
    <InformationField Name="ActivityInstanceId" Value="12" />
    <InformationField Name="ActivityType" Value="If" />
    <InformationField Name="DisplayName" Value="If Build Reason is Triggered" />
    <InformationField Name="Duration" Value="00:00:00" />
    <InformationField Name="State" Value="Closed" />
    <InformationField Name="StartTime" Value="2013-04-05T06:59:59.6520506Z" />
    <InformationField Name="FinishTime" Value="2013-04-05T06:59:59.7990590Z" />
  </Fields>
<Children><BuildInformationNode Id="6d8421a5-858e-4f16-8d65-daaf803ee0a2" ParentId="02ae1e9c-d183-4346-9d2b-d696246858ee" Type="ActivityTracking">
  <Fields>
    <InformationField Name="ActivityInstanceId" Value="13" />
    <InformationField Name="ActivityType" Value="Sequence" />
    <InformationField Name="DisplayName" Value="Sequence" />
    <InformationField Name="Duration" Value="00:00:00" />
    <InformationField Name="State" Value="Closed" />
    <InformationField Name="StartTime" Value="2013-04-05T06:59:59.6520506Z" />
    <InformationField Name="FinishTime" Value="2013-04-05T06:59:59.7990590Z" />
  </Fields>
<Children><BuildInformationNode Id="6ab93ba1-9a01-456a-bda0-5b7aa96b7fc5" ParentId="6d8421a5-858e-4f16-8d65-daaf803ee0a2" Type="ActivityTracking">
  <Fields>
    <InformationField Name="ActivityInstanceId" Value="14" />
    <InformationField Name="ActivityType" Value="Assign&lt;String&gt;" />
    <InformationField Name="DisplayName" Value="Assign&lt;String&gt;" />
    <InformationField Name="Duration" Value="00:00:00" />
    <InformationField Name="State" Value="Closed" />
    <InformationField Name="StartTime" Value="2013-04-05T06:59:59.6520506Z" />
    <InformationField Name="FinishTime" Value="2013-04-05T06:59:59.6530506Z" />
  </Fields>
<Children><BuildInformationNode Id="99b90629-0335-4609-beda-e85f824890e7" ParentId="6ab93ba1-9a01-456a-bda0-5b7aa96b7fc5" Type="ActivityInput">
  <Fields>
    <InformationField Name="Value" Value="$/Titanium Goat/Drops/Nightly/Nightly_20130404.2" />
  </Fields>
<Children /></BuildInformationNode><BuildInformationNode Id="e17b49de-4afc-4974-80b2-f4012a8533c4" ParentId="6ab93ba1-9a01-456a-bda0-5b7aa96b7fc5" Type="ActivityOutput">
  <Fields>
    <InformationField Name="To" Value="$/Titanium Goat/Drops/Nightly/Nightly_20130404.2" />
  </Fields>
<Children /></BuildInformationNode></Children></BuildInformationNode><BuildInformationNode Id="cae90308-8b1e-45f7-807f-1b3b5d3d8243" ParentId="6d8421a5-858e-4f16-8d65-daaf803ee0a2" Type="ActivityTracking">
  <Fields>
    <InformationField Name="ActivityInstanceId" Value="15" />
    <InformationField Name="ActivityType" Value="SetBuildProperties" />
    <InformationField Name="DisplayName" Value="Set Drop Location" />
    <InformationField Name="Duration" Value="00:00:00" />
    <InformationField Name="State" Value="Closed" />
    <InformationField Name="StartTime" Value="2013-04-05T06:59:59.6530506Z" />
    <InformationField Name="FinishTime" Value="2013-04-05T06:59:59.7980589Z" />
  </Fields>
<Children><BuildInformationNode Id="353266d8-77af-4f59-b048-118689ee947f" ParentId="cae90308-8b1e-45f7-807f-1b3b5d3d8243" Type="ActivityInput">
  <Fields>
    <InformationField Name="LabelName" />
    <InformationField Name="SourceGetVersion" />
    <InformationField Name="KeepForever" Value="False" />
    <InformationField Name="DropLocation" Value="$/Titanium Goat/Drops/Nightly/Nightly_20130404.2" />
    <InformationField Name="Status" Value="None" />
    <InformationField Name="LogLocation" />
    <InformationField Name="BuildNumber" />
    <InformationField Name="Quality" />
    <InformationField Name="TestStatus" Value="Unknown" />
    <InformationField Name="CompilationStatus" Value="Unknown" />
  </Fields>
<Children /></BuildInformationNode></Children></BuildInformationNode></Children></BuildInformationNode><BuildInformationNode Id="80c79880-7ea7-43f2-9dd9-6eb5bf508d9a" ParentId="02ae1e9c-d183-4346-9d2b-d696246858ee" Type="ActivityInput">
  <Fields>
    <InformationField Name="Condition" Value="True" />
  </Fields>
<Children /></BuildInformationNode></Children></BuildInformationNode><BuildInformationNode Id="71ca79af-2f58-4714-ac69-77c0ab4989aa" ParentId="e088ba15-2d4c-43c1-b03d-3f69540d638d" Type="ActivityTracking">
  <Fields>
    <InformationField Name="ActivityInstanceId" Value="16" />
    <InformationField Name="ActivityType" Value="If" />
    <InformationField Name="DisplayName" Value="If Build Reason is ValidateShelveset" />
    <InformationField Name="Duration" Value="00:00:00" />
    <InformationField Name="State" Value="Closed" />
    <InformationField Name="StartTime" Value="2013-04-05T06:59:59.7990590Z" />
    <InformationField Name="FinishTime" Value="2013-04-05T06:59:59.7990590Z" />
  </Fields>
<Children><BuildInformationNode Id="5b0666fa-fb29-478f-bb93-6dd2dfc8fe7e" ParentId="71ca79af-2f58-4714-ac69-77c0ab4989aa" Type="ActivityInput">
  <Fields>
    <InformationField Name="Condition" Value="False" />
  </Fields>
<Children /></BuildInformationNode></Children></BuildInformationNode></Children></BuildInformationNode><BuildInformationNode Id="fc6e5dd4-b66f-4c41-9e89-61687e664f0e" ParentId="b253f744-f156-419e-95a2-5d0a35b4b976" Type="AgentScopeActivityTracking">
  <Fields>
    <InformationField Name="ReservationStatus" Value="AgentReleased" />
    <InformationField Name="ReservedAgentUri" Value="vstfs:///Build/Agent/20" />
    <InformationField Name="ReservedAgentName" Value="BOBTHEBUILDER - Agent1" />
    <InformationField Name="ActivityInstanceId" Value="17" />
    <InformationField Name="ActivityType" Value="AgentScope" />
    <InformationField Name="DisplayName" Value="Run On Agent" />
    <InformationField Name="Duration" Value="00:03:04" />
    <InformationField Name="State" Value="Closed" />
    <InformationField Name="StartTime" Value="2013-04-05T06:59:59.8000590Z" />
    <InformationField Name="FinishTime" Value="2013-04-05T07:03:04.4316193Z" />
    <InformationField Name="PossibleAgents" Value="vstfs:///Build/Agent/20=BOBTHEBUILDER - Agent1" />
  </Fields>
<Children><BuildInformationNode Id="69a4ab4f-c8ed-4bf4-a140-6c37ad71c42a" ParentId="fc6e5dd4-b66f-4c41-9e89-61687e664f0e" Type="ActivityInput">
  <Fields>
    <InformationField Name="MaxWaitTime" Value="04:00:00" />
    <InformationField Name="MaxExecutionTime" Value="00:00:00" />
    <InformationField Name="ReservationSpec" Value="Name=BOBTHEBUILDER - Agent1, Tags=" />
  </Fields>
<Children /></BuildInformationNode><BuildInformationNode Id="0a2c5c11-42e7-4b0a-a632-315888e49a3f" ParentId="fc6e5dd4-b66f-4c41-9e89-61687e664f0e" Type="ActivityOutput">
  <Fields>
    <InformationField Name="Result" Value="BOBTHEBUILDER - Agent1 (vstfs:///Build/Agent/20)" />
  </Fields>
<Children /></BuildInformationNode></Children></BuildInformationNode><BuildInformationNode Id="d1c38c41-049b-47b0-9a15-d45ee34cd76c" ParentId="b253f744-f156-419e-95a2-5d0a35b4b976" Type="BuildMessage">
  <Fields>
    <InformationField Name="Importance" Value="Normal" />
    <InformationField Name="Message" Value="Skipped execution of Check In Gated Changes because of BuildReason ScheduleForced" />
    <InformationField Name="Timestamp" Value="2013-04-05T07:03:04.4326194Z" />
  </Fields>
<Children /></BuildInformationNode></Children></BuildInformationNode><BuildInformationNode Id="71af1ac6-1b36-4ec8-8ccf-9f7391385685" ParentId="02e8e5d9-b6f7-47b9-8556-2fec8c1084e4" Type="ActivityInput">
  <Fields>
    <InformationField Name="MSBuildMultiProc" Value="True" />
    <InformationField Name="Verbosity" Value="Normal" />
    <InformationField Name="CreateWorkItem" Value="True" />
    <InformationField Name="SourceAndSymbolServerSettings" Value="Index Sources" />
    <InformationField Name="RunCodeAnalysis" Value="AsConfigured" />
    <InformationField Name="SolutionSpecificBuildOutputs" Value="False" />
    <InformationField Name="TestSpecs" Value="Standard tests - Run tests from $/Titanium Goat/TitaniumGoat/TitaniumGoat.vsmdi (test lists: Remote UT), Fails build" />
    <InformationField Name="AgentSettings" Value="Use agent where Name=BOBTHEBUILDER - Agent1 and Tags is empty; Max Wait Time: 04:00:00" />
    <InformationField Name="MSBuildPlatform" Value="X86" />
    <InformationField Name="PrivateDropLocation" />
    <InformationField Name="MSBuildArguments" />
    <InformationField Name="CreateLabel" Value="True" />
    <InformationField Name="AssociateChangesetsAndWorkItems" Value="True" />
    <InformationField Name="GetVersion" />
    <InformationField Name="CleanWorkspace" Value="All" />
    <InformationField Name="PerformTestImpactAnalysis" Value="True" />
    <InformationField Name="BuildSettings" Value="Build 1 project(s) for 1 platform(s) and configuration(s)" />
    <InformationField Name="BuildNumberFormat" Value="$(BuildDefinitionName)_$(Date:yyyyMMdd)$(Rev:.r)" />
    <InformationField Name="DisableTests" Value="False" />
  </Fields>
<Children /></BuildInformationNode></Children></BuildInformationNode>
</BuildInformation>